Project 1
…
head(applicant_info)

##                                             School SAT.75.perc Acceptance.Rate
## 1                                             Rice        1570           0.167
## 2        Southwestern Assemblies of God University        1103           0.349
## 3 Texas A & M University-Texarkana (A&M-Texarkana)        1150           0.372
## 4                  Hardin-Simmons University (HSU)        1150           0.376
## 5    The University of Texas at Austin (UT Austin)        1480           0.402
## 6                     LeTourneau University (LETU)        1310           0.407

fake.tidy <- all_stats %>% pivot_longer(!School, names_to = "stat", values_to = "count")
fake.tidy

## # A tibble: 360 x 3
##    School                                    stat                count
##    <fct>                                     <chr>               <dbl>
##  1 Rice                                      Applicants      15415    
##  2 Rice                                      Admitted         2581    
##  3 Rice                                      Acceptance.Rate     0.167
##  4 Rice                                      Popularity.Rank     4    
##  5 Rice                                      SAT.75.perc      1570    
##  6 Rice                                      Denied          12834    
##  7 Southwestern Assemblies of God University Applicants       2057    
##  8 Southwestern Assemblies of God University Admitted          717    
##  9 Southwestern Assemblies of God University Acceptance.Rate     0.349
## 10 Southwestern Assemblies of God University Popularity.Rank    59    
## # … with 350 more rows

fake.tidy %>% pivot_wider(names_from = stat, values_from = count)

## # A tibble: 60 x 7
##    School Applicants Admitted Acceptance.Rate Popularity.Rank SAT.75.perc Denied
##    <fct>       <dbl>    <dbl>           <dbl>           <dbl>       <dbl>  <dbl>
##  1 Rice        15415     2581           0.167               4        1570  12834
##  2 South…       2057      717           0.349              59        1103   1340
##  3 Texas…        830      309           0.372              65        1150    521
##  4 Hardi…       2091      786           0.376              45        1150   1305
##  5 The U…      38161    15335           0.402               1        1480  22826
##  6 LeTou…       1810      736           0.407              61        1310   1074
##  7 Texas…       2394      998           0.417              50        1140   1396
##  8 Dalla…       2631     1113           0.423              39        1250   1518
##  9 Prair…      10747     4548           0.423              37        1040   6199
## 10 Texas…       9746     4389           0.45               28        1000   5357
## # … with 50 more rows
…
